<?xml version="1.0" encoding="UTF-8" standalone="no"?>
<!-- Created with Inkscape (http://www.inkscape.org/) -->

<svg
   xmlns:dc="http://purl.org/dc/elements/1.1/"
   xmlns:cc="http://creativecommons.org/ns#"
   xmlns:rdf="http://www.w3.org/1999/02/22-rdf-syntax-ns#"
   xmlns:svg="http://www.w3.org/2000/svg"
   xmlns="http://www.w3.org/2000/svg"
   xmlns:sodipodi="http://sodipodi.sourceforge.net/DTD/sodipodi-0.dtd"
   xmlns:inkscape="http://www.inkscape.org/namespaces/inkscape"
   width="744.09448819"
   height="1052.3622047"
   id="svg2"
   version="1.1"
   inkscape:version="0.48.4 r9939"
   sodipodi:docname="Новый документ 1">
  <defs
     id="defs4">
    <marker
       inkscape:stockid="Arrow1Mstart"
       orient="auto"
       refY="0.0"
       refX="0.0"
       id="Arrow1Mstart"
       style="overflow:visible">
      <path
         id="path3777"
         d="M 0.0,0.0 L 5.0,-5.0 L -12.5,0.0 L 5.0,5.0 L 0.0,0.0 z "
         style="fill-rule:evenodd;stroke:#000000;stroke-width:1.0pt"
         transform="scale(0.4) translate(10,0)" />
    </marker>
    <marker
       inkscape:stockid="Arrow1Mend"
       orient="auto"
       refY="0.0"
       refX="0.0"
       id="Arrow1Mend"
       style="overflow:visible;">
      <path
         id="path3780"
         d="M 0.0,0.0 L 5.0,-5.0 L -12.5,0.0 L 5.0,5.0 L 0.0,0.0 z "
         style="fill-rule:evenodd;stroke:#000000;stroke-width:1.0pt;"
         transform="scale(0.4) rotate(180) translate(10,0)" />
    </marker>
    <marker
       inkscape:stockid="Arrow1Lend"
       orient="auto"
       refY="0.0"
       refX="0.0"
       id="Arrow1Lend"
       style="overflow:visible;">
      <path
         id="path3774"
         d="M 0.0,0.0 L 5.0,-5.0 L -12.5,0.0 L 5.0,5.0 L 0.0,0.0 z "
         style="fill-rule:evenodd;stroke:#000000;stroke-width:1.0pt;"
         transform="scale(0.8) rotate(180) translate(12.5,0)" />
    </marker>
  </defs>
  <sodipodi:namedview
     id="base"
     pagecolor="#ffffff"
     bordercolor="#666666"
     borderopacity="1.0"
     inkscape:pageopacity="0.0"
     inkscape:pageshadow="2"
     inkscape:zoom="0.35"
     inkscape:cx="2959.3367"
     inkscape:cy="377.85262"
     inkscape:document-units="px"
     inkscape:current-layer="layer1"
     showgrid="true"
     inkscape:snap-global="true"
     inkscape:object-nodes="true"
     inkscape:snap-grids="false"
     inkscape:window-width="1920"
     inkscape:window-height="1018"
     inkscape:window-x="-8"
     inkscape:window-y="-8"
     inkscape:window-maximized="1">
    <inkscape:grid
       type="xygrid"
       id="grid2985" />
  </sodipodi:namedview>
  <metadata
     id="metadata7">
    <rdf:RDF>
      <cc:Work
         rdf:about="">
        <dc:format>image/svg+xml</dc:format>
        <dc:type
           rdf:resource="http://purl.org/dc/dcmitype/StillImage" />
        <dc:title></dc:title>
      </cc:Work>
    </rdf:RDF>
  </metadata>
  <g
     inkscape:label="Layer 1"
     inkscape:groupmode="layer"
     id="layer1">
    <g
       id="g4813"
       inkscape:export-filename="C:\Users\yuriy.dynnikov\Work\master_work\figures\podkos_overview.png"
       inkscape:export-xdpi="60.419998"
       inkscape:export-ydpi="60.419998">
      <path
         inkscape:connector-curvature="0"
         id="path2989"
         d="M 200,1432.3622 1209,132.36218"
         style="fill:none;stroke:#000000;stroke-width:19.39999999999999900;stroke-linecap:round;stroke-linejoin:miter;stroke-opacity:1;stroke-miterlimit:4;stroke-dasharray:none" />
      <path
         inkscape:connector-curvature="0"
         id="path2991"
         d="m 200,132.36218 1009,0"
         style="fill:none;stroke:#000000;stroke-width:19.39999999999999900;stroke-linecap:round;stroke-linejoin:miter;stroke-opacity:1;stroke-miterlimit:4;stroke-dasharray:none" />
      <path
         inkscape:connector-curvature="0"
         id="path3761"
         d="m 180.71429,163.07647 40.71428,0 L 200,132.36218 z"
         style="fill:none;stroke:#000000;stroke-width:10.29999905;stroke-linecap:butt;stroke-linejoin:miter;stroke-opacity:1;stroke-miterlimit:4;stroke-dasharray:none" />
      <path
         style="fill:none;stroke:#000000;stroke-width:10.29999924;stroke-linecap:butt;stroke-linejoin:miter;stroke-miterlimit:4;stroke-opacity:1;stroke-dasharray:none"
         d="m 180.71429,1463.0765 40.71428,0 L 200,1432.3622 z"
         id="path3763"
         inkscape:connector-curvature="0" />
      <path
         inkscape:connector-curvature="0"
         id="path3765"
         d="m 1209,132.36218 0,680"
         style="fill:none;stroke:#000000;stroke-width:9.8;stroke-linecap:butt;stroke-linejoin:miter;stroke-opacity:1;stroke-miterlimit:4;stroke-dasharray:none;marker-end:url(#Arrow1Mend)" />
      <text
         sodipodi:linespacing="125%"
         id="text4397"
         y="812.93475"
         x="1272.4526"
         style="font-size:86.97977448px;font-style:normal;font-weight:normal;line-height:125%;letter-spacing:0px;word-spacing:0px;fill:#000000;fill-opacity:1;stroke:none;font-family:Sans"
         xml:space="preserve"><tspan
           y="812.93475"
           x="1272.4526"
           id="tspan4399"
           sodipodi:role="line">4000кгс</tspan></text>
      <text
         style="font-size:135.00419617px"
         id="text4401"
         y="263.76889"
         x="635.14832"
         xml:space="preserve"><tspan
           style="font-style:normal;font-variant:normal;font-weight:normal;font-stretch:normal;font-family:math;-inkscape-font-specification:math"
           y="263.76889"
           x="635.14832"
           id="tspan4403"
           sodipodi:role="line">L<tspan
   id="tspan4405"
   style="font-size:87.75396729px;font-style:normal;font-variant:normal;font-weight:normal;font-stretch:normal;baseline-shift:sub;font-family:math;-inkscape-font-specification:math">1</tspan></tspan></text>
      <text
         xml:space="preserve"
         x="600.2196"
         y="714.68536"
         id="text4407"
         style="font-size:126.18017578px"><tspan
           sodipodi:role="line"
           id="tspan4409"
           x="600.2196"
           y="714.68536"
           style="font-style:normal;font-variant:normal;font-weight:normal;font-stretch:normal;font-family:math;-inkscape-font-specification:math">L<tspan
   id="tspan4413"
   style="font-size:65.00091553%;baseline-shift:sub">2</tspan></tspan></text>
      <g
         transform="translate(-5.7142857,-1468.5714)"
         id="g4808">
        <path
           style="fill:none;stroke:#000000;stroke-width:5.5999999;stroke-linecap:butt;stroke-linejoin:miter;stroke-miterlimit:4;stroke-opacity:1;stroke-dasharray:none;marker-start:url(#Arrow1Mstart);marker-end:url(#Arrow1Mend)"
           d="m 200.0102,1494.809 1004.0916,0"
           id="path4417"
           inkscape:connector-curvature="0" />
        <text
           xml:space="preserve"
           style="font-size:60px;font-style:normal;font-weight:normal;line-height:125%;letter-spacing:0px;word-spacing:0px;fill:#000000;fill-opacity:1;stroke:none;font-family:Sans"
           x="656.59912"
           y="1555.4181"
           id="text4793"
           sodipodi:linespacing="125%"><tspan
             sodipodi:role="line"
             id="tspan4795"
             x="656.59912"
             y="1555.4181">1009мм</tspan></text>
      </g>
      <g
         transform="translate(34.285715,11.428571)"
         id="g4803">
        <path
           inkscape:connector-curvature="0"
           id="path4797"
           d="m 120.20813,1423.0882 0,-1286.93436"
           style="fill:none;stroke:#000000;stroke-width:5.5999999;stroke-linecap:butt;stroke-linejoin:miter;stroke-miterlimit:4;stroke-opacity:1;stroke-dasharray:none;marker-start:url(#Arrow1Mstart);marker-end:url(#Arrow1Mend)"
           sodipodi:nodetypes="cc" />
        <text
           xml:space="preserve"
           style="font-size:60px;font-style:normal;font-weight:normal;line-height:125%;letter-spacing:0px;word-spacing:0px;fill:#000000;fill-opacity:1;stroke:none;font-family:Sans"
           x="-881.60083"
           y="97.876144"
           id="text4799"
           sodipodi:linespacing="125%"
           transform="matrix(0,-1,1,0,0,0)"><tspan
             sodipodi:role="line"
             id="tspan4801"
             x="-881.60083"
             y="97.876144">1300мм</tspan></text>
      </g>
    </g>
    <g
       inkscape:export-ydpi="60.419998"
       inkscape:export-xdpi="60.419998"
       inkscape:export-filename="C:\Users\yuriy.dynnikov\Work\master_work\figures\svg\podkos.png"
       id="g4836"
       transform="translate(2368.5714,-145.71429)">
      <path
         style="fill:none;stroke:#000000;stroke-width:19.39999962;stroke-linecap:round;stroke-linejoin:miter;stroke-miterlimit:4;stroke-opacity:1;stroke-dasharray:none"
         d="M 200,1432.3622 1209,132.36218"
         id="path4838"
         inkscape:connector-curvature="0" />
      <path
         style="fill:none;stroke:#000000;stroke-width:19.39999962;stroke-linecap:round;stroke-linejoin:miter;stroke-miterlimit:4;stroke-opacity:1;stroke-dasharray:none"
         d="m 200,132.36218 1009,0"
         id="path4840"
         inkscape:connector-curvature="0" />
      <path
         style="fill:none;stroke:#000000;stroke-width:10.29999924;stroke-linecap:butt;stroke-linejoin:miter;stroke-miterlimit:4;stroke-opacity:1;stroke-dasharray:none"
         d="m 180.71429,163.07647 40.71428,0 L 200,132.36218 z"
         id="path4842"
         inkscape:connector-curvature="0" />
      <path
         inkscape:connector-curvature="0"
         id="path4844"
         d="m 180.71429,1463.0765 40.71428,0 L 200,1432.3622 z"
         style="fill:none;stroke:#000000;stroke-width:10.29999924;stroke-linecap:butt;stroke-linejoin:miter;stroke-miterlimit:4;stroke-opacity:1;stroke-dasharray:none" />
      <path
         style="fill:none;stroke:#000000;stroke-width:9.80000019;stroke-linecap:butt;stroke-linejoin:miter;stroke-miterlimit:4;stroke-opacity:1;stroke-dasharray:none;marker-end:url(#Arrow1Mend)"
         d="m 1209,132.36218 0,680"
         id="path4846"
         inkscape:connector-curvature="0" />
      <text
         xml:space="preserve"
         style="font-size:86.97977448px;font-style:normal;font-weight:normal;line-height:125%;letter-spacing:0px;word-spacing:0px;fill:#000000;fill-opacity:1;stroke:none;font-family:Sans"
         x="1272.4526"
         y="812.93475"
         id="text4848"
         sodipodi:linespacing="125%"><tspan
           sodipodi:role="line"
           id="tspan4850"
           x="1272.4526"
           y="812.93475">Q</tspan></text>
      <path
         style="fill:none;stroke:#000000;stroke-width:7.80000019;stroke-linecap:butt;stroke-linejoin:miter;stroke-miterlimit:4;stroke-opacity:1;stroke-dasharray:none;marker-end:url(#Arrow1Lend)"
         d="m 2565.7143,120.93361 1411.4285,0"
         id="path4880"
         inkscape:connector-curvature="0"
         transform="translate(-2365.7143,11.428571)"
         sodipodi:nodetypes="cc" />
      <text
         xml:space="preserve"
         style="font-size:98.68804169px;font-style:normal;font-weight:normal;line-height:125%;letter-spacing:0px;word-spacing:0px;fill:#000000;fill-opacity:1;stroke:none;font-family:Sans"
         x="1514.1016"
         y="56.625935"
         id="text5068"
         sodipodi:linespacing="125%"><tspan
           sodipodi:role="line"
           id="tspan5070"
           x="1514.1016"
           y="56.625935">R<tspan
   style="font-size:64.14813232px;baseline-shift:sub"
   id="tspan5072">1</tspan></tspan></text>
      <path
         inkscape:connector-curvature="0"
         id="path5074"
         d="M 200,1432.3622 1540.5465,-294.30923"
         style="fill:none;stroke:#000000;stroke-width:7.80000019;stroke-linecap:butt;stroke-linejoin:miter;stroke-miterlimit:4;stroke-opacity:1;stroke-dasharray:none;marker-end:url(#Arrow1Lend)"
         sodipodi:nodetypes="cc" />
      <text
         sodipodi:linespacing="125%"
         id="text5076"
         y="-246.23117"
         x="1325.5302"
         style="font-size:98.68804169px;font-style:normal;font-weight:normal;line-height:125%;letter-spacing:0px;word-spacing:0px;fill:#000000;fill-opacity:1;stroke:none;font-family:Sans"
         xml:space="preserve"><tspan
           y="-246.23117"
           x="1325.5302"
           id="tspan5078"
           sodipodi:role="line">R<tspan
   style="font-size:65.00091553%;baseline-shift:sub"
   id="tspan5082">2</tspan></tspan></text>
    </g>
  </g>
</svg>
